<?xml version="1.0" encoding="utf-8"?>
<!-- Generator: Adobe Illustrator 18.0.0, SVG Export Plug-In . SVG Version: 6.00 Build 0)  -->
<!DOCTYPE svg PUBLIC "-//W3C//DTD SVG 1.1//EN" "http://www.w3.org/Graphics/SVG/1.1/DTD/svg11.dtd">
<svg version="1.1" id="Layer_1" xmlns="http://www.w3.org/2000/svg" xmlns:xlink="http://www.w3.org/1999/xlink" x="0px" y="0px"
	 viewBox="0 0 7086.6 1700.8" enable-background="new 0 0 7086.6 1700.8" xml:space="preserve">
<g>
	<g>
		<polygon fill="#093755" points="5370.3,216.7 5034.4,217.7 5203.9,43.5 		"/>
		<g>
			<g>
				<path id="SVGID_1_" fill="#093755" d="M229.5,1099.7c0-84.1,64.6-108.4,135.8-122.9c71.2-12.9,151.9-14.6,190.7-48.5v85.7
					c0,50.1-6.5,192.3-185.9,192.3C295.8,1206.3,229.5,1185.3,229.5,1099.7 M25.7,758.5h229.7c8-90.5,64.6-126,151.9-126
					c80.8,0,148.7,14.6,148.7,113.2c0,93.7-130.9,88.9-271.6,109.8C142.2,874.9,0,920.2,0,1109.4c0,171.3,126,250.5,284.4,250.5
					c101.9,0,208.6-27.6,281.3-103.4c1.6,27.4,8.2,54.8,16.2,80.7h232.8c-21-33.9-29.1-109.8-29.1-185.9V716.6
					c0-200.5-200.4-237.7-366.9-237.7C231.1,478.9,38.7,543.6,25.7,758.5"/>
			</g>
		</g>
		<g>
			<g>
				<path id="SVGID_3_" fill="#093755" d="M1178.4,617.9h-4.9V501.5H955.3v835.7h229.5v-438c0-169.7,53.4-239.2,177.8-239.2
					c106.6,0,147.1,67.9,147.1,205.3v472h229.5v-514c0-206.9-61.5-344.3-305.5-344.3C1336.8,478.9,1236.6,524.2,1178.4,617.9"/>
			</g>
		</g>
		<g>
			<g>
				<path id="SVGID_5_" fill="#093755" d="M2429.5,501.5l-182.7,572.3h-3.2l-189.1-572.3h-245.6l294.2,784.1
					c25.7,66.2,0,148.5-79.3,156.7c-45.3,1.7-90.5-4.8-134.2-8.2v189.2c46.8,4.9,93.7,8.2,140.6,8.2c158.4,0,237.5-55,287.7-189.2
					l349.1-940.8L2429.5,501.5L2429.5,501.5z"/>
			</g>
		</g>
		<g>
			<g>
				<path id="SVGID_7_" fill="#093755" d="M2853.1,920.2c0-203.6,116.3-316.9,260.2-316.9c143.9,0,260.2,113.2,260.2,316.9
					c0,202.1-116.3,315.2-260.2,315.2C2969.4,1235.4,2853.1,1122.3,2853.1,920.2 M2707.6,920.2c0,244,140.6,436.4,405.7,436.4
					c265.1,0,405.7-192.4,405.7-436.4c0-245.7-140.6-438-405.7-438C2848.3,482.2,2707.6,674.5,2707.6,920.2"/>
			</g>
		</g>
		<g>
			<g>
				<path id="SVGID_9_" fill="#093755" d="M3810,918.6c0-156.8,71.2-315.2,255.4-315.2c177.9,0,258.6,152,258.6,308.8
					c0,163.2-63,323.3-250.5,323.3C3884.4,1235.4,3810,1083.5,3810,918.6 M3818.2,614.7h-3.2V501.5h-137.4v1155.8h137.4v-431.7h3.2
					c61.5,98.6,184.2,130.9,269.9,130.9c255.4,0,381.5-198.7,381.5-434.8c0-236-127.7-439.6-384.7-439.6
					C3970.1,482.2,3863.5,522.5,3818.2,614.7"/>
			</g>
		</g>
		<g>
			<g>
				<path id="SVGID_11_" fill="#093755" d="M4676.5,251v250.5h-142.2v121.2h142.2v531.8c0,153.6,56.6,182.7,198.9,182.7h105.1V1216
					h-63c-85.7,0-103.5-11.2-103.5-74.4V622.8h166.5V501.5h-166.5V251H4676.5z"/>
			</g>
		</g>
		<g>
			<g>
				<rect id="SVGID_13_" x="5132.4" y="501.5" fill="#093755" width="137.3" height="835.7"/>
			</g>
		</g>
		<g>
			<g>
				<path id="SVGID_15_" fill="#093755" d="M5575.2,920.2c0-203.6,116.4-316.9,260.3-316.9c143.9,0,260.3,113.2,260.3,316.9
					c0,202.1-116.4,315.2-260.3,315.2C5691.6,1235.4,5575.2,1122.3,5575.2,920.2 M5429.8,920.2c0,244,140.7,436.4,405.7,436.4
					c265.1,0,405.7-192.4,405.7-436.4c0-245.7-140.6-438-405.7-438C5570.5,482.2,5429.8,674.5,5429.8,920.2"/>
			</g>
		</g>
		<g>
			<g>
				<path id="SVGID_17_" fill="#093755" d="M6527.4,634h-3.2V501.5h-129.3v835.7h137.3v-472c0-150.3,80.9-261.9,247.2-261.9
					c105.1,0,169.8,66.2,169.8,168.1v565.7h137.3V787.6c0-179.4-67.9-305.4-287.7-305.4C6679.3,482.2,6585.6,530.6,6527.4,634"/>
			</g>
		</g>
		<polygon fill="#093755" points="5367.5,218.3 5028.4,219.3 5199.5,43.5 		"/>
	</g>
</g>
</svg>
